[
    {
        "openTime": 1560915300000,
        "open": "13.88000000",
        "high": "13.88500000",
        "low": "13.87400000",
        "close": "13.87900000",
        "volume": "1282.19800000",
        "closeTime": 1560915599999,
        "quoteVolume": "17795.23538500",
        "trades": 42,
        "baseAssetVolume": "1191.63300000",
        "quoteAssetVolume": "16538.19904200"
    },
    {
        "openTime": 1560915600000,
        "open": "13.87900000",
        "high": "13.89400000",
        "low": "13.83400000",
        "close": "13.83600000",
        "volume": "2736.33000000",
        "closeTime": 1560915899999,
        "quoteVolume": "37921.20856300",
        "trades": 55,
        "baseAssetVolume": "1187.95000000",
        "quoteAssetVolume": "16465.06427900"
    },
    {
        "openTime": 1560915900000,
        "open": "13.84700000",
        "high": "13.86700000",
        "low": "13.84200000",
        "close": "13.84600000",
        "volume": "333.50400000",
        "closeTime": 1560916199999,
        "quoteVolume": "4618.11327300",
        "trades": 16,
        "baseAssetVolume": "214.61100000",
        "quoteAssetVolume": "2972.32952400"
    },
    {
        "openTime": 1560916200000,
        "open": "13.84600000",
        "high": "13.85400000",
        "low": "13.83400000",
        "close": "13.83400000",
        "volume": "1044.83600000",
        "closeTime": 1560916499999,
        "quoteVolume": "14461.64204800",
        "trades": 23,
        "baseAssetVolume": "280.27800000",
        "quoteAssetVolume": "3880.30636300"
    },
    {
        "openTime": 1560916500000,
        "open": "13.83500000",
        "high": "13.83500000",
        "low": "13.81100000",
        "close": "13.82600000",
        "volume": "663.66600000",
        "closeTime": 1560916799999,
        "quoteVolume": "9174.61370600",
        "trades": 37,
        "baseAssetVolume": "413.61200000",
        "quoteAssetVolume": "5719.12069200"
    },
    {
        "openTime": 1560916800000,
        "open": "13.83500000",
        "high": "13.84500000",
        "low": "13.82500000",
        "close": "13.83100000",
        "volume": "334.20100000",
        "closeTime": 1560917099999,
        "quoteVolume": "4625.07397400",
        "trades": 15,
        "baseAssetVolume": "292.07900000",
        "quoteAssetVolume": "4042.71932400"
    },
    {
        "openTime": 1560917100000,
        "open": "13.84500000",
        "high": "13.86000000",
        "low": "13.84400000",
        "close": "13.85800000",
        "volume": "949.71900000",
        "closeTime": 1560917399999,
        "quoteVolume": "13155.20125300",
        "trades": 31,
        "baseAssetVolume": "891.01700000",
        "quoteAssetVolume": "12342.25044900"
    },
    {
        "openTime": 1560917400000,
        "open": "13.85700000",
        "high": "13.85800000",
        "low": "13.84200000",
        "close": "13.85600000",
        "volume": "505.80100000",
        "closeTime": 1560917699999,
        "quoteVolume": "7005.95175700",
        "trades": 32,
        "baseAssetVolume": "355.80100000",
        "quoteAssetVolume": "4929.56012500"
    },
    {
        "openTime": 1560917700000,
        "open": "13.85900000",
        "high": "13.92400000",
        "low": "13.85900000",
        "close": "13.88100000",
        "volume": "1568.94800000",
        "closeTime": 1560917999999,
        "quoteVolume": "21788.56718900",
        "trades": 75,
        "baseAssetVolume": "1326.55800000",
        "quoteAssetVolume": "18420.62963400"
    },
    {
        "openTime": 1560918000000,
        "open": "13.88900000",
        "high": "13.90900000",
        "low": "13.88100000",
        "close": "13.88200000",
        "volume": "875.69800000",
        "closeTime": 1560918299999,
        "quoteVolume": "12170.74943600",
        "trades": 39,
        "baseAssetVolume": "208.47800000",
        "quoteAssetVolume": "2897.52732300"
    },
    {
        "openTime": 1560918300000,
        "open": "13.88300000",
        "high": "13.90100000",
        "low": "13.88100000",
        "close": "13.90000000",
        "volume": "1485.42400000",
        "closeTime": 1560918599999,
        "quoteVolume": "20636.07041500",
        "trades": 47,
        "baseAssetVolume": "726.39900000",
        "quoteAssetVolume": "10093.91623000"
    }
]